<?xml version="1.0" encoding="UTF-8" standalone="no"?>
<svg
   xmlns:dc="http://purl.org/dc/elements/1.1/"
   xmlns:cc="http://creativecommons.org/ns#"
   xmlns:rdf="http://www.w3.org/1999/02/22-rdf-syntax-ns#"
   xmlns:svg="http://www.w3.org/2000/svg"
   xmlns="http://www.w3.org/2000/svg"
   style="fill:none"
   id="svg1204"
   version="1.1"
   viewBox="0 0 935.01666 267.06375"
   height="267.06375"
   width="935.01666">
  <metadata
     id="metadata1208">
    <rdf:RDF>
      <cc:Work
         rdf:about="">
        <dc:format>image/svg+xml</dc:format>
        <dc:type
           rdf:resource="http://purl.org/dc/dcmitype/StillImage" />
        <dc:title></dc:title>
      </cc:Work>
    </rdf:RDF>
  </metadata>
  <defs
     id="defs1202" />
  <path
     id="path97"
     d="m 198.1131,144.55753 c -0.42,-1.68 -7.28,-6.16 -10.78,-7 -3.36,-0.56 -9.24,7.56 -21.00001,26.74 -3.22,5.46 -7.14,12.88 -11.06,21.28 -3.78,0.14 -6.72,0.28 -7.84,0.28 -4.76,0.42 -4.2,-0.42 -7.7,1.12 -3.64,1.4 -1.68,12.32 3.08,11.9 1.54,0 3.78,-0.28 6.72,-0.7 -7.84,18.06 -15.54,36.4 -17.78,41.86 -4.34,9.52 -5.46,17.64 -2.52,21.7 2.94,3.92 6.44,1.4 7.98,-3.22 1.54,-4.62 2.94,-14.14 22.4,-52.64 1.82,-3.78 3.64,-6.86 5.32,-10.08 4.62,-0.98 9.10001,-1.54 12.32001,-2.1 9.52,-1.54 14.28,-8.54 14.56,-9.52 0.42,-1.12 -1.26,-1.68 -10.36,-0.56 -2.66,0.42 -6.3,0.56 -10.36,0.98 12.74,-22.82 21.14,-32.2 24.5,-36.96 0.98,-1.54 2.66,-1.4 2.52,-3.08 z m -0.861,49.7 c -2.24,-1.54 -8.12,-2.1 -3.64,1.54 0.7,0.42 1.12,0.98 1.54,1.68 l -1.54,0.42 c -5.04,1.12 -13.16,11.48 -16.94,16.8 -3.78,5.32 -3.64,16.8 5.46,18.62 9.1,1.96 23.1,-6.3 26.18,-17.64 3.08,-11.34 -8.82,-19.6 -11.06,-21.42 z m -9.1,25.48 c 0.42,-1.4 5.46,-7.56 9.52,-11.2 0,2.8 -0.56,5.46 -1.54,6.72 -2.66,3.78 -8.26,6.16 -7.98,4.48 z m 133.167,-75.18 c -0.42,-1.68 -7.28,-6.16 -10.78,-7 -3.36,-0.56 -9.24,7.56 -21,26.74 -3.22,5.46 -7.14,12.88 -11.06,21.28 -3.78,0.14 -6.72,0.28 -7.84,0.28 -4.76,0.42 -4.2,-0.42 -7.7,1.12 -3.64,1.4 -1.68,12.32 3.08,11.9 1.54,0 3.78,-0.28 6.72,-0.7 -7.84,18.06 -15.54,36.4 -17.78,41.86 -4.34,9.52 -5.46,17.64 -2.52,21.7 2.94,3.92 6.44,1.4 7.98,-3.22 1.54,-4.62 2.94,-14.14 22.4,-52.64 1.82,-3.78 3.64,-6.86 5.32,-10.08 4.62,-0.98 9.1,-1.54 12.32,-2.1 9.52,-1.54 14.28,-8.54 14.56,-9.52 0.42,-1.12 -1.26,-1.68 -10.36,-0.56 -2.66,0.42 -6.3,0.56 -10.36,0.98 12.74,-22.82 21.14,-32.2 24.5,-36.96 0.98,-1.54 2.66,-1.4 2.52,-3.08 z m 26.023,-1.54 c -5.18,-2.94 -7,-1.54 -7.98,0.56 -0.7,2.1 -5.88,13.86 -12.18,25.06 -6.16,11.2 -28,54.04 -30.24,58.1 -2.24,4.06 0.7,15.4 4.9,15.82 3.92,0.42 9.94,-6.16 19.32,-16.24 9.24,-9.94 21.42,-16.94 23.52,-15.54 -4.9,8.26 -3.78,21 3.92,22.12 7.7,1.12 13.86,-4.76 22.54,-12.6 8.54,-7.84 10.64,-15.4 5.88,-12.46 -4.76,3.22 -15.54,9.66 -19.6,10.78 -4.34,1.26 -3.08,-2.52 0.7,-10.5 3.5,-7.98 0.7,-12.6 -5.88,-13.02 -6.72,-0.42 -27.86,12.88 -37.94,24.78 7.42,-21.42 35,-69.58 35.98,-70.98 0.98,-1.54 -0.84,-4.76 -2.94,-5.88 z m 79.804,69.86 c -9.8,5.74 -26.32,11.34 -33.46,11.76 -7.28,0.42 -4.9,-4.34 -3.78,-5.88 3.64,5.88 8.4,2.38 13.86,-0.14 5.6,-2.66 14.14,-7.28 13.72,-13.02 -0.7,-5.74 -6.16,-12.18 -10.08,-12.6 -2.94,-0.42 -8.82,0.56 -15.96,7.28 -7.56,7.14 -13.16,18.76 -14.28,24.36 -1.12,5.6 2.94,13.44 13.02,11.2 9.8,-2.24 34.16,-14.98 38.36,-17.64 4.06,-2.66 8.26,-10.92 -1.4,-5.32 z m -22.12,-8.12 c -0.7,3.5 -6.3,6.02 -8.82,6.72 2.8,-3.36 4.48,-5.04 8.82,-6.72 z m 168.493,-83.72 c -3.5,-3.5 -11.76,-14.56 -33.04,-3.64 -8.68,4.48 -16.8,18.62 -17.22,27.02 -0.42,6.02 -3.92,16.52 -8.54,28.28 -2.38,0.14 -5.04,0.14 -7.84,0.14 -15.96,0 -20.16,1.12 -22.82,6.86 -1.68,3.78 0.84,6.44 3.5,6.02 3.22,-0.7 8.68,-0.98 20.58,-1.96 0.56,0 1.12,-0.14 1.68,-0.14 -2.1,3.92 -4.76,9.1 -7.7,15.12 0,0 -0.14,0.14 -0.28,0.56 -1.12,1.82 -2.1,3.92 -3.22,6.58 -9.66,19.74 -18.2,42.7 -19.74,45.36 -2.24,4.06 -2.1,15.4 2.1,15.82 1.54,0.14 3.36,-2.1 6.02,-5.46 l 2.1,-4.2 c 0.98,-0.7 1.68,-1.54 2.38,-2.52 8.26,-13.44 10.5,-23.24 25.76,-55.16 2.38,-4.9 5.04,-10.22 8.26,-16.24 7.98,0 17.08,-0.14 27.3,-2.24 14.42,-2.94 9.94,-19.18 5.04,-15.82 -10.5,2.66 -17.92,4.34 -25.76,5.6 l 14.14,-27.02 c 3.08,-6.02 10.64,-12.46 17.78,-12.04 13.72,1.12 10.5,-9.94 9.52,-10.92 z m 18.026,87.36 c -4.76,2.94 -26.6,15.12 -30.66,16.24 -4.06,1.12 5.18,-16.52 7.56,-18.34 2.66,-1.54 3.64,-1.68 3.78,-3.92 0.42,-2.24 -5.04,-8.26 -7.7,-8.26 -1.12,0 -2.1,0 -5.88,4.62 -3.78,4.48 -10.08,19.32 -10.78,26.88 -0.7,7.98 4.76,12.88 10.08,11.34 5.32,-1.26 30.66,-20.3 35.28,-24.36 4.62,-4.2 3.22,-7.14 -1.68,-4.2 z m -15.68,-23.1 c 2.24,-1.82 4.76,-2.66 3.08,-4.76 -1.82,-2.1 -3.64,-6.72 -6.02,-6.3 -0.7,0 -5.88,1.4 -8.26,2.24 -2.1,0.7 -0.7,6.44 1.12,9.66 1.54,3.36 7.84,0.98 10.08,-0.84 z m 37.79,-0.7 c -4.9,-2.66 -8.68,-1.4 -9.66,0.7 -0.84,1.96 -4.62,12.18 -8.68,22.54 -4.2,11.06 -5.88,12.04 -8.12,15.82 -2.24,3.5 0.84,13.86 4.34,14.28 3.78,0.42 6.86,-0.56 15.4,-9.52 8.26,-9.1 20.02,-24.5 21.98,-23.38 -4.48,7.42 -4.06,28.14 2.94,29.26 7,1.12 12.6,-4.34 20.44,-11.48 7.84,-7 9.66,-13.72 5.32,-11.2 -4.34,2.94 -14.14,8.68 -17.78,9.8 -3.64,1.12 -2.1,-11.48 1.26,-18.9 3.22,-7.14 0.7,-11.34 -5.32,-11.76 -5.88,-0.42 -21,17.92 -32.34,26.18 6.72,-19.46 12.04,-25.76 12.88,-26.88 0.98,-1.54 -0.56,-4.34 -2.66,-5.46 z m 83.561,13.72 c 1.82,0.42 3.22,-1.68 2.24,-2.66 -3.78,-4.2 -11.2,-3.92 -15.82,-2.8 -4.48,1.12 -20.58,10.78 -21.98,20.02 -1.54,9.38 8.12,12.6 11.34,11.48 3.22,-1.26 8.96,-2.94 14,-5.88 -2.66,7.56 5.88,9.52 10.08,7.98 4.2,-1.54 24.22,-11.9 31.36,-16.38 7.14,-4.48 11.62,-11.2 6.3,-9.38 -5.18,1.68 -30.66,10.92 -34.02,13.16 -3.64,2.24 -0.28,-1.82 1.96,-4.48 1.68,-1.82 0.84,-4.76 -1.26,-6.3 -1.12,-0.56 -22.26,9.66 -23.66,9.66 0,-4.34 17.78,-14.42 19.46,-14.42 z m 92.226,-59.64 c 1.12,-1.54 2.94,-1.4 2.52,-3.08 0,-1.68 -7.28,-6.3 -10.64,-7 -3.36,-0.56 -9.24,7.56 -21,26.74 -11.624,18.9 -30.804,66.22 -34.724,75.74 -4.34,9.52 -5.46,17.64 -2.52,21.56 2.94,4.06 6.44,1.54 7.98,-3.08 1.54,-4.62 2.8,-14.28 22.544,-52.64 19.46,-38.5 31.36,-52.36 35.84,-58.24 z m 1.64,62.86 c -3.22,1.54 -7.14,3.64 -10.92,5.88 0,-3.22 0.42,-6.02 1.4,-8.12 2.1,-4.9 4.9,-7.42 8.4,-7.42 1.26,0 1.68,0 2.38,-0.7 0.98,-0.56 0.84,-3.78 -1.4,-4.9 -2.38,-1.12 -11.48,-1.4 -16.8,3.92 -3.5,3.5 -7.28,10.22 -4.62,18.2 0.42,1.54 1.12,2.94 1.54,4.48 -5.46,3.78 -9.38,7.28 -11.48,10.64 -2.38,3.92 -2.94,8.82 -1.82,9.94 1.12,0.98 2.24,3.08 3.78,4.2 3.5,3.22 9.94,3.64 14.84,-0.14 5.18,-3.92 6.72,-11.62 5.04,-19.6 -0.42,-1.12 -0.42,-2.24 -0.56,-3.36 8.12,-5.88 19.88,-13.02 25.34,-15.54 3.78,-1.54 -4.76,-2.38 -15.12,2.52 z m -18.2,27.58 c -1.12,3.5 -4.48,4.9 -6.72,4.9 -0.7,-0.56 -1.12,-1.26 -1.26,-1.96 0,-1.54 -0.14,-5.74 6.86,-11.2 l 0.7,-0.56 c 0.42,3.78 1.12,6.58 0.42,8.82 z"
     style="fill:#ffffff" />
  <path
     id="path99"
     d="m 56.207076,47.21753 c 3.44,-9.44 2.08,-19.36 -1.6,-26.08 0.56,-0.4 -2,-4.16 -4.8,-6.32 -1.2,-1.28 -4.16,-2.88 -10.64,-3.44 -12.48,-1.04 -20.88,9.6 -24.72,18.96 -0.24,0.56 -0.48,1.2 -0.64,1.92 -5.8399996,6.08 -10.2399996,12.96 -12.3999996,20.32 -4.24,14.32 2.16,19.52 5.28,22 0.24,0.72 1.04,1.2 2.32,1.52 3.5999996,1.6 9.0399996,1.44 12.7999996,-0.16 0.08,-0.08 0.08,-0.08 0.16,-0.08 3.28,4.16 7.68,7.6 13.44,8.48 7.28,1.04 15.36,-3.36 17.44,-5.44 2.08,-2.08 2.64,-5.12 1.12,-4.48 -1.44,0.64 -11.76,6.16 -18.56,2.96 -1.84,-0.88 -3.52,-2.16 -5.12,-4.08 11.44,-4.96 21.6,-14.48 25.92,-26.08 z m -18.56,-30 c 2.56,-0.4 7.04,-0.24 8.64,1.52 l 0.16,0.16 c 0.08,0 0.08,0 0.08,0.08 -0.96,-0.72 -4,-1.2 -7.76,-0.96 -2,0.08 -3.84,0.32 -5.36,0.72 1.36,-0.72 2.88,-1.2 4.24,-1.52 z m -23.52,50.64 c -4.4799996,-1.92 -5.7599996,-10 -3.6,-15.6 0.64,-1.68 1.36,-3.36 2.24,-4.96 0.32,6.72 1.36,13.28 2.72,17.04 0.56,1.28 1.12,2.72 1.84,4.24 -1.2,-0.08 -2.24,-0.32 -3.2,-0.72 z m 18.72,-3.44 c -0.24,-0.32 -1.04,0 -2.4,0.96 -0.88,0.64 -2.08,1.28 -3.76,1.84 -0.72,-1.84 -1.52,-3.68 -2.24,-6 -2.4,-7.36 -3.36,-19.28 -2.08,-25.68 l 0.56,-2.4 c 3.28,-3.2 6.96,-6.08 10.88,-8.32 1.36,-0.72 2.88,-1.2 4.56,-1.52 0.4,-0.08 0.72,-0.24 1.28,-0.24 4.24,-0.72 7.12,-2.64 7.2,-3.6 3.6,6.32 1.52,22.16 -0.48,26.32 -2.88,6.8 -6.88,13.52 -13.52,18.64 z m 36.266,-14.64 c -1.2,-0.56 -2.8,-0.88 -4.64,-0.8 -1.92,0.08 -2.24,0.4 -3.44,2.72 -1.2,2.24 -6.8,12.32 -6.56,13.76 0.24,1.52 1.28,7.2 5.68,6.16 4.32,-1.04 6.72,-4.64 11.12,-8 -0.64,2.64 -1.44,6.64 0.32,8.4 1.68,1.84 2.8,2.32 4.08,1.44 1.36,-0.88 0.4,-2.8 1.52,-5.68 0.88,-2.72 6.32,-12.16 7.6,-14 1.28,-1.92 -3.44,-4 -4.88,-4.24 -1.36,-0.24 -1.76,-0.32 -2.72,1.68 -2.4,4.8 -11.76,12.56 -13.76,14.08 -2,1.52 3.12,-8.24 5.2,-11.2 2.16,-2.88 1.2,-3.92 0.48,-4.32 z m 38.878014,2.96 c 1.04,0.24 1.84,-0.96 1.28,-1.52 -2.16,-2.4 -6.4,-2.24 -9.04,-1.6 -2.560014,0.64 -11.760014,6.16 -12.560014,11.44 -0.88,5.36 4.64,7.2 6.48,6.56 1.84,-0.72 5.12,-1.68 8.000014,-3.36 -1.52,4.32 3.36,5.44 5.76,4.56 2.4,-0.88 13.84,-6.8 17.92,-9.36 4.08,-2.56 6.64,-6.4 3.6,-5.36 -2.96,0.96 -17.52,6.24 -19.44,7.52 -2.08,1.28 -0.16,-1.04 1.12,-2.56 0.96,-1.04 0.48,-2.72 -0.72,-3.6 -0.64,-0.32 -12.720014,5.52 -13.520014,5.52 0,-2.48 10.160014,-8.24 11.120014,-8.24 z m 41.339,3.84 c -0.4,-3.6 1.44,-8.16 -1.2,-8.16 -1.52,0 -4.8,2.24 -8,4.48 2.72,-5.04 -0.8,-3.44 -1.84,-5.12 -1.2,-1.84 -2.24,-1.04 -4.8,0.8 -1.76,1.36 -1.2,2.56 -2.32,5.2 -1.04,2.56 -9.76,15.6 -7.76,20.64 0.88,2.24 2.64,2.08 4.88,0.88 5.52,-2.96 3.6,-5.2 5.36,-9.52 0.64,-2.16 1.68,-4.24 3.28,-7.12 1.52,-0.72 2.96,-1.36 3.52,-1.68 1.68,-0.88 3.2,-0.32 2.96,1.84 -0.4,2.16 3.28,3.36 4.72,3.36 1.52,0 1.6,-1.84 1.2,-5.6 z m 37.10301,-34.56 c -0.24,-0.96 -4.16,-3.52 -6.16,-4 -1.92,-0.32 -5.28,4.32 -12.00001,15.28 -1.84,3.12 -4.08,7.36 -6.32,12.16 -2.16,0.08 -3.84,0.16 -4.48,0.16 -2.72,0.24 -2.4,-0.24 -4.4,0.64 -2.08,0.8 -0.96,7.04 1.76,6.8 0.88,0 2.16,-0.16 3.84,-0.4 -4.48,10.32 -8.88,20.8 -10.16,23.92 -2.48,5.44 -3.12,10.08 -1.44,12.4 1.68,2.24 3.68,0.8 4.56,-1.84 0.88,-2.64 1.68,-8.08 12.8,-30.08 1.04,-2.16 2.08,-3.92 3.04,-5.76 2.64,-0.56 5.20001,-0.88 7.04001,-1.2 5.44,-0.88 8.16,-4.88 8.32,-5.44 0.24,-0.64 -0.72,-0.96 -5.92,-0.32 -1.52,0.24 -3.6,0.32 -5.92,0.56 7.28,-13.04 12.08,-18.4 14,-21.12 0.56,-0.88 1.52,-0.8 1.44,-1.76 z m 14.948,39.04 c -5.6,3.28 -15.04,6.48 -19.12,6.72 -4.16,0.24 -2.8,-2.48 -2.16,-3.36 2.08,3.36 4.8,1.36 7.92,-0.08 3.2,-1.52 8.08,-4.16 7.84,-7.44 -0.4,-3.28 -3.52,-6.96 -5.76,-7.2 -1.68,-0.24 -5.04,0.32 -9.12,4.16 -4.32,4.08 -7.52,10.72 -8.16,13.92 -0.64,3.2 1.68,7.68 7.44,6.4 5.6,-1.28 19.52,-8.56 21.92,-10.08 2.32,-1.52 4.72,-6.24 -0.8,-3.04 z m -12.64,-4.64 c -0.4,2 -3.6,3.44 -5.04,3.84 1.6,-1.92 2.56,-2.88 5.04,-3.84 z m 40.054,0.16 c -0.4,-3.6 1.44,-8.16 -1.2,-8.16 -1.52,0 -4.8,2.24 -8,4.48 2.72,-5.04 -0.8,-3.44 -1.84,-5.12 -1.2,-1.84 -2.24,-1.04 -4.8,0.8 -1.76,1.36 -1.2,2.56 -2.32,5.2 -1.04,2.56 -9.76,15.6 -7.76,20.64 0.88,2.24 2.64,2.08 4.88,0.88 5.52,-2.96 3.6,-5.2 5.36,-9.52 0.64,-2.16 1.68,-4.24 3.28,-7.12 1.52,-0.72 2.96,-1.36 3.52,-1.68 1.68,-0.88 3.2,-0.32 2.96,1.84 -0.4,2.16 3.28,3.36 4.72,3.36 1.52,0 1.6,-1.84 1.2,-5.6 z m 9.104,-0.16 c 2,1.92 6.16,1.12 12.8,0.8 4.08,-0.08 7.68,0.08 12.72,-0.96 7.52,-1.44 4.96,-3.12 4.32,-4.56 -0.56,-1.52 -2.32,-1.92 -3.36,-1.36 -1.04,0.4 -6.16,0.48 -15.2,0.48 -3.92,0 -7.28,-1.2 -9.76,-0.96 -2.48,0.24 -2.56,5.52 -1.52,6.56 z m 87.414,-47.8400003 c -2,-2 -6.72,-8.32000003 -18.88,-2.08 -4.96,2.56 -9.6,10.6400003 -9.84,15.4400003 -0.24,3.44 -2.24,9.44 -4.88,16.16 -1.36,0.08 -2.88,0.08 -4.48,0.08 -9.12,0 -11.52,0.64 -13.04,3.92 -0.96,2.16 0.48,3.68 2,3.44 1.84,-0.4 4.96,-0.56 11.76,-1.12 0.32,0 0.64,-0.08 0.96,-0.08 -1.2,2.24 -2.72,5.2 -4.4,8.64 0,0 -0.08,0.08 -0.16,0.32 -0.64,1.04 -1.2,2.24 -1.84,3.76 -5.52,11.28 -10.4,24.4 -11.28,25.92 -1.28,2.32 -1.2,8.8 1.2,9.04 0.88,0.08 1.92,-1.2 3.44,-3.12 l 1.2,-2.4 c 0.56,-0.4 0.96,-0.88 1.36,-1.44 4.72,-7.68 6,-13.28 14.72,-31.52 1.36,-2.8 2.88,-5.84 4.72,-9.28 4.56,0 9.76,-0.08 15.6,-1.28 8.24,-1.68 5.68,-10.96 2.88,-9.04 -6,1.52 -10.24,2.48 -14.72,3.2 l 8.08,-15.44 c 1.76,-3.44 6.08,-7.12 10.16,-6.88 7.84,0.64 6,-5.6800003 5.44,-6.2400003 z m 10.301,49.9200003 c -2.72,1.68 -15.2,8.64 -17.52,9.28 -2.32,0.64 2.96,-9.44 4.32,-10.48 1.52,-0.88 2.08,-0.96 2.16,-2.24 0.24,-1.28 -2.88,-4.72 -4.4,-4.72 -0.64,0 -1.2,0 -3.36,2.64 -2.16,2.56 -5.76,11.04 -6.16,15.36 -0.4,4.56 2.72,7.36 5.76,6.48 3.04,-0.72 17.52,-11.6 20.16,-13.92 2.64,-2.4 1.84,-4.08 -0.96,-2.4 z m -8.96,-13.2 c 1.28,-1.04 2.72,-1.52 1.76,-2.72 -1.04,-1.2 -2.08,-3.84 -3.44,-3.6 -0.4,0 -3.36,0.8 -4.72,1.28 -1.2,0.4 -0.4,3.68 0.64,5.52 0.88,1.92 4.48,0.56 5.76,-0.48 z m 21.594,-0.4 c -2.8,-1.52 -4.96,-0.8 -5.52,0.4 -0.48,1.12 -2.64,6.96 -4.96,12.88 -2.4,6.32 -3.36,6.88 -4.64,9.04 -1.28,2 0.48,7.92 2.48,8.16 2.16,0.24 3.92,-0.32 8.8,-5.44 4.72,-5.2 11.44,-14 12.56,-13.36 -2.56,4.24 -2.32,16.08 1.68,16.72 4,0.64 7.2,-2.48 11.68,-6.56 4.48,-4 5.52,-7.84 3.04,-6.4 -2.48,1.68 -8.08,4.96 -10.16,5.6 -2.08,0.64 -1.2,-6.56 0.72,-10.8 1.84,-4.08 0.4,-6.48 -3.04,-6.72 -3.36,-0.24 -12,10.24 -18.48,14.96 3.84,-11.12 6.88,-14.72 7.36,-15.36 0.56,-0.88 -0.32,-2.48 -1.52,-3.12 z m 47.749,7.84 c 1.04,0.24 1.84,-0.96 1.28,-1.52 -2.16,-2.4 -6.4,-2.24 -9.04,-1.6 -2.56,0.64 -11.76,6.16 -12.56,11.44 -0.88,5.36 4.64,7.2 6.48,6.56 1.84,-0.72 5.12,-1.68 8,-3.36 -1.52,4.32 3.36,5.44 5.76,4.56 2.4,-0.88 13.84,-6.8 17.92,-9.36 4.08,-2.56 6.64,-6.4 3.6,-5.36 -2.96,0.96 -17.52,6.24 -19.44,7.52 -2.08,1.28 -0.16,-1.04 1.12,-2.56 0.96,-1.04 0.48,-2.72 -0.72,-3.6 -0.64,-0.32 -12.72,5.52 -13.52,5.52 0,-2.48 10.16,-8.24 11.12,-8.24 z m 52.699,-34.08 c 0.64,-0.88 1.68,-0.8 1.44,-1.76 0,-0.96 -4.16,-3.6 -6.08,-4 -1.92,-0.32 -5.28,4.32 -12,15.28 -6.64,10.8 -17.6,37.84 -19.84,43.28 -2.48,5.44 -3.12,10.08 -1.44,12.32 1.68,2.32 3.68,0.88 4.56,-1.76 0.88,-2.64 1.6,-8.16 12.88,-30.08 11.12,-22 17.92,-29.92 20.48,-33.28 z m 0.942,35.92 c -1.84,0.88 -4.08,2.08 -6.24,3.36 0,-1.84 0.24,-3.44 0.8,-4.64 1.2,-2.8 2.8,-4.24 4.8,-4.24 0.72,0 0.96,0 1.36,-0.4 0.56,-0.32 0.48,-2.16 -0.8,-2.8 -1.36,-0.64 -6.56,-0.8 -9.6,2.24 -2,2 -4.16,5.84 -2.64,10.4 0.24,0.88 0.64,1.68 0.88,2.56 -3.12,2.16 -5.36,4.16 -6.56,6.08 -1.36,2.24 -1.68,5.04 -1.04,5.68 0.64,0.56 1.28,1.76 2.16,2.4 2,1.84 5.68,2.08 8.48,-0.08 2.96,-2.24 3.84,-6.64 2.88,-11.2 -0.24,-0.64 -0.24,-1.28 -0.32,-1.92 4.64,-3.36 11.36,-7.44 14.48,-8.88 2.16,-0.88 -2.72,-1.36 -8.64,1.44 z m -10.4,15.76 c -0.64,2 -2.56,2.8 -3.84,2.8 -0.4,-0.32 -0.64,-0.72 -0.72,-1.12 0,-0.88 -0.08,-3.28 3.92,-6.4 l 0.4,-0.32 c 0.24,2.16 0.64,3.76 0.24,5.04 z m 79.103,-70.32000033 c -1.36,-0.24 -4.48,2.00000003 -8.56,5.76000003 -4.08,3.6 -8.8,8.5600003 -11.12,12.0000003 -1.04,1.6 -3.28,4.88 -5.52,9.44 -2.24,4.56 -3.6,10.32 -5.12,16.48 -1.52,6.32 -2.32,12.72 -2.4,18.72 -0.24,5.84 1.2,10.96 1.84,13.84 1.2,6 2.56,9.52 4.4,11.52 1.92,2 2.72,2.4 3.44,2.16 1.6,-0.72 0.64,-2.4 0,-4.16 -0.4,-0.88 -1.44,-2.88 -2.64,-8 -1.04,-5.04 -2.08,-13.2 -0.4,-24.48 1.52,-11.6 7.68,-23.92 14.32,-32.32 6.4,-8.56 13.36,-12.4800003 14.24,-13.5200003 2,-1.6 -1.12,-6.96000003 -2.48,-7.44000003 z M 562.8301,10.73753 c -1.04,1.04 -1.6,1.6 -8.32,2.24 -1.2,0.16 -2.8,0.32 -4.96,0.48 -0.96,-1.68 -3.28,-3.04 -4.32,-2.72 -0.88,0.32 -1.92,1.44 -3.12,3.28 -9.2,0.64 -20.56,1.52 -27.12,2.8 -10.56,1.92 -2.96,10.8 -1.68,7.6 8,-1.84 17.12,-3.12 25.2,-4 -1.04,2.16 -2.08,4.24 -3.12,6.16 -3.2,6.08 -17.84,34.72 -20.4,42.32 -2.32,7.6 0.64,10.8 2.4,10.8 2.56,0.24 3.12,-2 3.12,-3.2 0.24,-1.28 -0.24,-5.36 7.68,-21.84 6.16,-12.72 15.12,-27.84 19.36,-35.04 1.84,-0.08 3.44,-0.16 4.96,-0.16 9.2,-0.24 11.92,-1.2 12.96,-4.72 0.88,-3.44 -1.52,-4.8800003 -2.64,-4 z m -13.402,39.68 c -1.28,-0.88 -4.64,-1.2 -2.08,0.88 0.4,0.24 0.64,0.56 0.88,0.96 l -0.88,0.24 c -2.88,0.64 -7.52,6.56 -9.68,9.6 -2.16,3.04 -2.08,9.6 3.12,10.64 5.2,1.12 13.2,-3.6 14.96,-10.08 1.76,-6.48 -5.04,-11.2 -6.32,-12.24 z m -5.2,14.56 c 0.24,-0.8 3.12,-4.32 5.44,-6.4 0,1.6 -0.32,3.12 -0.88,3.84 -1.52,2.16 -4.72,3.52 -4.56,2.56 z m 44.092,-19.04 c -3.68,-0.24 -12.96,5.28 -20.08,10.48 5.12,-12.72 16.88,-32.8 17.44,-33.36 0.56,-0.88 -0.48,-2.72 -1.68,-3.36 -3.12,-1.68 -5.04,-0.96 -5.6,0.24 -0.56,1.2 -1.6,6.32 -4.88,12.8 -5.44,10.56 -16.24,33.36 -17.52,35.6 -1.28,2.32 -0.32,8 1.92,8.24 1.84,0.24 3.76,-4.24 6.72,-11.28 0.96,-0.56 1.6,-1.36 2.32,-2.08 0,4.24 5.2,12.8 9.92,12.8 2.4,0 4.08,-0.48 7.76,-3.92 3.84,-3.36 4.72,-7.12 2.56,-5.84 -2.16,1.36 -4.96,3.04 -6.96,3.6 -3.12,0.88 -5.44,-1.12 -6.4,-3.76 -0.96,-2.64 -1.36,-5.04 -1.92,-6.96 5.12,-3.36 10.96,-6.16 12.32,-6.16 1.52,0.24 7.84,-6.8 4.08,-7.04 z m 26.063,21.04 c 2.16,-6.16 3.76,-11.84 4,-13.52 0.24,-2.88 -3.6,-3.76 -4.96,-4.4 -0.4,-0.24 -0.72,0.24 -0.88,1.6 -1.84,2.08 -6.56,7.28 -9.76,8.56 -7.04,2.88 0.4,-6.08 1.68,-7.68 0.96,-1.36 2,-2.48 0,-2.96 -1.28,-0.24 -2.08,-0.32 -4.88,1.36 -3.28,2 -7.44,6.96 -8.16,9.28 -1.04,3.92 4.16,7.52 7.68,6.48 3.52,-0.96 7.04,-4.24 12.16,-8.16 -0.64,2.48 -1.6,6.56 -3.44,11.12 -18.88,5.12 -30.48,12.56 -32.56,18.64 -2.48,7.28 2.08,12.72 6.48,11.68 6,-1.28 19.12,-5.12 26.8,-18.24 1.6,-2.8 3.2,-6.56 4.72,-10.64 l 2.56,-0.8 c 4.8,-1.68 5.84,-3.6 3.04,-3.28 z m -11.6,12.16 c -5.68,9.28 -19.12,13.84 -22.32,14.08 -3.28,0.24 -0.32,-6.96 9.12,-13.2 5.44,-3.52 11.52,-6 16.72,-7.68 -0.96,2.32 -2.16,4.56 -3.52,6.8 z m 32.752,-28.72 c -1.28,-0.88 -4.64,-1.2 -2.08,0.88 0.4,0.24 0.64,0.56 0.88,0.96 l -0.88,0.24 c -2.88,0.64 -7.52,6.56 -9.68,9.6 -2.161,3.04 -2.081,9.6 3.12,10.64 5.2,1.12 13.2,-3.6 14.96,-10.08 1.759,-6.48 -5.04,-11.2 -6.32,-12.24 z m -5.2,14.56 c 0.24,-0.8 3.12,-4.32 5.44,-6.4 0,1.6 -0.32,3.12 -0.88,3.84 -1.52,2.16 -4.72,3.52 -4.56,2.56 z m 82.575,-45.2 c 2.64,0 3.68,-6.56 -0.8,-8.48 -2.96,-1.2 -6.8,-0.48 -8.64,0.4 -1.68,1.04 -15.12,13.36 -20.32,18.88 -5.36,5.52 -11.28,13.44 -8.56,21.04 2.08,6.08 13.04,8.4 16.48,9.28 1.92,0.56 4.64,1.6 6.24,2.88 1.04,0.88 0.88,2.96 -0.32,5.44 -4.24,10.16 -13.6,15.52 -17.2,15.28 -2.8,0 5.28,-11.68 8.32,-15.6 3.12,-4.08 3.6,-5.36 2,-4.64 -1.44,0.64 -10.4,8.48 -12.72,11.68 -2.4,3.28 -5.84,14 4.16,13.6 9.92,-0.4 21.52,-12.48 23.04,-19.92 0.72,-3.28 -0.8,-6.56 -3.28,-8.8 -3.12,-2.8 -7.92,-4.08 -12.72,-5.44 -4.8,-1.28 -8.32,-2.24 -6.8,-7.12 2.64,-8.24 17.68,-19.12 22.88,-23.68 5.04,-4.4 6.48,-4.8 8.24,-4.8 z m 31.467,2.24 c -0.24,-0.96 -4.16,-3.52 -6.16,-4 -1.92,-0.32 -5.28,4.32 -12,15.28 -1.84,3.12 -4.08,7.36 -6.32,12.16 -2.16,0.08 -3.84,0.16 -4.48,0.16 -2.72,0.24 -2.4,-0.24 -4.4,0.64 -2.08,0.8 -0.96,7.04 1.76,6.8 0.88,0 2.16,-0.16 3.84,-0.4 -4.48,10.32 -8.88,20.8 -10.16,23.92 -2.48,5.44 -3.12,10.08 -1.44,12.4 1.68,2.24 3.68,0.8 4.56,-1.84 0.88,-2.64 1.68,-8.08 12.8,-30.08 1.04,-2.16 2.08,-3.92 3.04,-5.76 2.64,-0.56 5.2,-0.88 7.04,-1.2 5.44,-0.88 8.16,-4.88 8.32,-5.44 0.24,-0.64 -0.72,-0.96 -5.92,-0.32 -1.52,0.24 -3.6,0.32 -5.92,0.56 7.28,-13.04 12.08,-18.4 14,-21.12 0.56,-0.88 1.52,-0.8 1.44,-1.76 z m 7.505,30.72 c 1.04,0.24 1.84,-0.96 1.28,-1.52 -2.16,-2.4 -6.397,-2.24 -9.037,-1.6 -2.56,0.64 -11.76,6.16 -12.56,11.44 -0.88,5.36 4.64,7.2 6.48,6.56 1.84,-0.72 5.12,-1.68 8,-3.36 -1.52,4.32 3.36,5.44 5.757,4.56 2.4,-0.88 13.84,-6.8 17.92,-9.36 4.08,-2.56 6.64,-6.4 3.6,-5.36 -2.96,0.96 -17.52,6.24 -19.44,7.52 -2.08,1.28 -0.16,-1.04 1.12,-2.56 0.96,-1.04 0.48,-2.72 -0.72,-3.6 -0.64,-0.32 -12.717,5.52 -13.517,5.52 0,-2.48 10.16,-8.24 11.117,-8.24 z m 58.38,-28.48 c 0.56,-0.88 -0.48,-2.72 -1.68,-3.36 -2.96,-1.68 -4,-0.88 -4.56,0.32 -0.4,1.2 -3.36,7.92 -6.96,14.32 l -7.28,13.44 c -0.88,-0.88 -2.16,-1.36 -3.84,-0.96 -4.32,1.12 -11.28,5.52 -14.64,9.04 -3.28,3.52 -3.6,7.04 -3.12,7.76 0.4,0.56 0.8,3.28 4,3.68 3.44,0.4 8.08,-3.12 9.44,-4.48 l 0.16,1.6 c 0.08,0.88 0.24,1.92 0.48,2.56 0.32,1.28 1.92,2.72 4.16,3.04 2.32,0.32 6.16,-2.24 9.68,-5.36 3.44,-3.04 12.48,-8.64 8.8,-8.88 -2.32,0 -10.32,4.16 -13.6,5.44 1.2,-2.56 2.16,-5.28 3.04,-7.6 4.16,-12.16 15.52,-29.76 15.92,-30.56 z m -33.52,36.88 c 0.4,-0.24 6.4,-6 8.72,-6.8 l 1.76,-0.48 -1.76,3.28 -0.8,0.56 c -2.88,2.16 -6.32,2.88 -7.92,3.44 z m 52.09,-2.64 c -2.72,1.68 -15.2,8.64 -17.52,9.28 -2.32,0.64 2.96,-9.44 4.32,-10.48 1.52,-0.88 2.08,-0.96 2.16,-2.24 0.24,-1.28 -2.88,-4.72 -4.4,-4.72 -0.64,0 -1.2,0 -3.36,2.64 -2.16,2.56 -5.76,11.04 -6.16,15.36 -0.4,4.56 2.72,7.36 5.76,6.48 3.04,-0.72 17.52,-11.6 20.16,-13.92 2.64,-2.4 1.84,-4.08 -0.96,-2.4 z m -8.96,-13.2 c 1.28,-1.04 2.72,-1.52 1.76,-2.72 -1.04,-1.2 -2.08,-3.84 -3.44,-3.6 -0.4,0 -3.36,0.8 -4.72,1.28 -1.2,0.4 -0.4,3.68 0.64,5.52 0.88,1.92 4.48,0.56 5.76,-0.48 z m 20.08,4.48 c -1.2,-0.56 -2.8,-0.88 -4.64,-0.8 -1.92,0.08 -2.24,0.4 -3.44,2.72 -1.2,2.24 -6.8,12.32 -6.56,13.76 0.24,1.52 1.28,7.2 5.68,6.16 4.32,-1.04 6.72,-4.64 11.12,-8 -0.64,2.64 -1.44,6.64 0.32,8.4 1.68,1.84 2.8,2.32 4.08,1.44 1.36,-0.88 0.4,-2.8 1.52,-5.68 0.88,-2.72 6.32,-12.16 7.6,-14 1.28,-1.92 -3.44,-4 -4.88,-4.24 -1.36,-0.24 -1.76,-0.32 -2.72,1.68 -2.4,4.8 -11.76,12.56 -13.76,14.08 -2,1.52 3.12,-8.24 5.2,-11.2 2.16,-2.88 1.2,-3.92 0.48,-4.32 z m 71.95,10 c -2.48,1.28 -14,7.28 -15.68,8.64 -0.32,0.32 -0.56,0.16 -0.64,-0.48 1.52,-3.6 4.16,-9.68 4.16,-11.92 0.24,-2.48 -4.48,-4.24 -5.68,-3.84 -1.2,0.56 -5.6,3.44 -11.12,7.36 l 1.36,-2.4 1.84,-3.2 c 0.56,-0.96 0.56,-1.76 -2,-3.28 -2.56,-1.52 -3.44,-0.96 -4.32,-0.4 -0.72,0.4 -8.72,6.8 -10.88,8.96 l 2.56,-4.08 c 1.36,-2.16 2.64,-4.4 3.2,-5.28 0.88,-1.68 0.4,-2.24 -0.48,-2.8 -0.56,-0.56 -1.44,-0.72 -2.64,-1.04 -1.04,-0.4 -1.92,1.36 -2.64,2.88 -0.64,1.52 -8.08,10.24 -9.6,12.16 -1.6,1.84 -2.96,4.64 -2.32,5.28 0.64,0.64 0.24,3.92 2.56,5.2 2.16,1.28 2.24,0.64 4.16,-1.28 1.92,-1.76 8.72,-8.64 12.08,-11.84 -0.72,1.28 -1.36,2.48 -1.92,3.68 -0.96,2 -2,4.32 -2,5.52 -0.08,2.48 2,4.08 4.24,4.16 2.16,0 2.16,-1.04 4.48,-3.36 2.32,-2.32 9.52,-7.6 12.08,-10.4 l -1.44,4.24 c -0.88,2.32 -1.68,4.96 -2.08,6.32 -0.4,1.52 -0.16,2.88 0.64,3.92 0,2.96 3.76,3.12 5.52,2.24 1.92,-0.8 11.04,-7.28 14.16,-10 3.12,-2.72 4.88,-6.16 2.4,-4.96 z m 18.48,-56.6400003 c -1.44,-1.68 -6.88,-0.72 -6,3.04 0.08,0.88 1.2,4.0000003 2.08,8.5600003 0.96,4.72 1.68,10.64 1.68,17.04 -0.08,6.4 -0.88,13.04 -2.56,19.44 -1.6,6.32 -4,11.92 -6.64,16.4 -5.28,8.88 -10,12.8 -13.04,15.2 -3.12,2.24 -4.56,2.72 -5.12,2.96 -1.2,0.4 -2.56,1.04 -2,2.64 0.24,1.52 3.44,2.88 10.8,-1.92 3.44,-2.4 11.04,-8.88 16.64,-19.6 5.76,-10.56 7.68,-23.28 8.16,-28 0.64,-4.64 0.96,-12.24 0.16,-19.2 -0.64,-7.04 -2.72,-14.8800003 -4.16,-16.5600003 z"
     style="fill:#fcfcfc" />
</svg>
