<?xml version="1.0" encoding="UTF-8" standalone="no"?>
<svg
   xmlns:dc="http://purl.org/dc/elements/1.1/"
   xmlns:cc="http://creativecommons.org/ns#"
   xmlns:rdf="http://www.w3.org/1999/02/22-rdf-syntax-ns#"
   xmlns:svg="http://www.w3.org/2000/svg"
   xmlns="http://www.w3.org/2000/svg"
   style="fill:none"
   id="svg4"
   version="1.1"
   viewBox="0 0 9.9159184 9.9159126"
   height="9.9159126"
   width="9.9159184">
  <metadata
     id="metadata10">
    <rdf:RDF>
      <cc:Work
         rdf:about="">
        <dc:format>image/svg+xml</dc:format>
        <dc:type
           rdf:resource="http://purl.org/dc/dcmitype/StillImage" />
        <dc:title></dc:title>
      </cc:Work>
    </rdf:RDF>
  </metadata>
  <defs
     id="defs8" />
  <path
     style="fill:#1d1d1d;fill-opacity:0.35"
     id="path2"
     d="m 9.5807658,1.9531025 -3.00447,3.0048 3.00447,3.00466 c 0.4468702,0.44708 0.4468702,1.17128 0,1.61835 -0.2232901,0.2233 -0.51605,0.335 -0.80866,0.335 -0.29309,0 -0.58587,-0.1115 -0.80899,-0.335 l -3.00513,-3.005 -3.0049,3.005 c -0.22326,0.2233 -0.51605,0.335 -0.80891,0.335 -0.29278005,0 -0.58536505,-0.1116 -0.80883005,-0.335 -0.4469,-0.4469 -0.4469,-1.17113 0,-1.61837 l 3.00439005,-3.00467 -3.00456005,-3.00477 c -0.446901,-0.44691 -0.446901,-1.17128 0,-1.618181 0.44681,-0.446562 1.17074995,-0.446562 1.61773995,0 l 3.00504,3.004801 3.00481,-3.004801 c 0.44708,-0.446562 1.1711,-0.446562 1.6178301,0 0.4470402,0.446901 0.4470402,1.171271 1.7e-4,1.618181 z" />
</svg>
