<?xml version="1.0" encoding="UTF-8" standalone="no"?>
<svg
   xmlns:dc="http://purl.org/dc/elements/1.1/"
   xmlns:cc="http://creativecommons.org/ns#"
   xmlns:rdf="http://www.w3.org/1999/02/22-rdf-syntax-ns#"
   xmlns:svg="http://www.w3.org/2000/svg"
   xmlns="http://www.w3.org/2000/svg"
   style="fill:none"
   id="svg8"
   version="1.1"
   viewBox="0 0 21.399799 21.3993"
   height="21.3993"
   width="21.399799">
  <metadata
     id="metadata14">
    <rdf:RDF>
      <cc:Work
         rdf:about="">
        <dc:format>image/svg+xml</dc:format>
        <dc:type
           rdf:resource="http://purl.org/dc/dcmitype/StillImage" />
        <dc:title></dc:title>
      </cc:Work>
    </rdf:RDF>
  </metadata>
  <defs
     id="defs12" />
  <path
     style="fill:#ff0000;fill-opacity:0.5"
     id="path2"
     d="m 10.7003,9.27331 c 1.3767,0 2.4966,-1.12028 2.4966,-2.49664 0,-1.37636 -1.1199,-2.49664 -2.4966,-2.49664 -1.37676,0 -2.49669,1.12028 -2.49669,2.49664 0,1.37636 1.11993,2.49664 2.49669,2.49664 z m 0,-4.27995 c 0.9833,0 1.7833,0.79999 1.7833,1.78331 0,0.98332 -0.8,1.78332 -1.7833,1.78332 -0.98337,0 -1.78336,-0.8 -1.78336,-1.78332 0,-0.98332 0.79999,-1.78331 1.78336,-1.78331 z" />
  <path
     style="fill:#ff0000;fill-opacity:0.5"
     id="path4"
     d="m 10.6381,19.5298 5.4715,-7.9026 C 18.1619,8.89125 17.8651,4.39409 15.4744,2.00373 14.1826,0.711543 12.4649,0 10.6381,0 8.81125,0 7.09356,0.711543 5.80173,2.00338 3.41102,4.39373 3.11427,8.89089 5.15831,11.6162 Z M 6.30605,2.5077 C 7.46342,1.35068 9.00171,0.713326 10.6381,0.713326 c 1.6364,0 3.1746,0.637354 4.332,1.794374 2.1578,2.15745 2.4235,6.21913 0.561,8.7022 l -4.893,7.0666 -4.90093,-7.0773 C 3.88253,8.72683 4.1486,4.66515 6.30605,2.5077 Z" />
  <path
     style="fill:#ff0000;fill-opacity:0.5"
     id="path6"
     d="m 15.0216,15.3385 c -0.1962,-0.0239 -0.3731,0.1166 -0.3959,0.3124 -0.0228,0.1958 0.117,0.3731 0.3124,0.3959 3.7507,0.4416 5.7484,1.6314 5.7484,2.3208 0,0.968 -3.7992,2.3183 -9.9866,2.3183 -6.1874,0 -9.986574,-1.3503 -9.986574,-2.3183 0,-0.6894 1.997674,-1.8792 5.748334,-2.3208 C 6.65712,16.024 6.79693,15.8464 6.7741,15.6509 6.75092,15.4551 6.57401,15.3139 6.37821,15.3385 2.6229,15.7807 0,17.0262 0,18.3676 c 0,1.5066 3.67541,3.0317 10.6999,3.0317 7.0245,0 10.6999,-1.5251 10.6999,-3.0317 0,-1.3414 -2.6229,-2.5869 -6.3782,-3.0291 z" />
</svg>
