<?xml version="1.0" encoding="UTF-8" standalone="no"?>
<svg
   xmlns:dc="http://purl.org/dc/elements/1.1/"
   xmlns:cc="http://creativecommons.org/ns#"
   xmlns:rdf="http://www.w3.org/1999/02/22-rdf-syntax-ns#"
   xmlns:svg="http://www.w3.org/2000/svg"
   xmlns="http://www.w3.org/2000/svg"
   style="fill:none"
   id="svg8"
   version="1.1"
   viewBox="0 0 17.999973 18.000048"
   height="18.000048"
   width="17.999973">
  <metadata
     id="metadata14">
    <rdf:RDF>
      <cc:Work
         rdf:about="">
        <dc:format>image/svg+xml</dc:format>
        <dc:type
           rdf:resource="http://purl.org/dc/dcmitype/StillImage" />
        <dc:title></dc:title>
      </cc:Work>
    </rdf:RDF>
  </metadata>
  <defs
     id="defs12" />
  <path
     style="fill:#ffffff"
     id="path2"
     d="M 14.648473,0 H 3.351583 C 1.503523,0 0,1.503527 0,3.351547 v 11.2969 c 0,1.848 1.503523,3.3516 3.351583,3.3516 h 11.29689 c 1.848,0 3.3515,-1.5036 3.3515,-3.3516 V 3.351547 C 17.999973,1.503527 16.496473,0 14.648473,0 Z m 2.2968,14.648447 c 0,1.2665 -1.0304,2.2969 -2.2968,2.2969 H 3.351583 c -1.2665,0 -2.2969,-1.0304 -2.2969,-2.2969 v -11.2969 c 0,-1.26646 1.0304,-2.29686 2.2969,-2.29686 h 11.29689 c 1.2664,0 2.2968,1.0304 2.2968,2.29686 z" />
  <path
     style="fill:#ffffff"
     id="path4"
     d="m 9.000393,5.083497 c -2.15955,0 -3.91641,1.7569 -3.91641,3.91641 0,2.15954 1.75686,3.91644 3.91641,3.91644 2.15958,0 3.91638,-1.7569 3.91638,-3.91644 0,-2.15955 -1.7568,-3.91641 -3.91638,-3.91641 z m 0,6.77815 c -1.57799,0 -2.86172,-1.2838 -2.86172,-2.86174 0,-1.57796 1.28376,-2.86172 2.86172,-2.86172 1.57798,0 2.86168,1.28376 2.86168,2.86172 0,1.57794 -1.2837,2.86174 -2.86168,2.86174 z" />
  <path
     style="fill:#ffffff"
     id="path6"
     d="m 14.456473,3.543527 c -0.0981,-0.09808 -0.2341,-0.15437 -0.373,-0.15437 -0.1388,0 -0.2749,0.05629 -0.373,0.15437 -0.098,0.09809 -0.1543,0.23414 -0.1543,0.37298 0,0.13886 0.0563,0.27492 0.1543,0.373 0.0985,0.09809 0.2342,0.15434 0.373,0.15434 0.1389,0 0.2746,-0.05625 0.373,-0.15434 0.0981,-0.09843 0.1544,-0.23414 0.1544,-0.373 0,-0.13884 -0.0563,-0.27457 -0.1544,-0.37298 z" />
</svg>
